<?xml version="1.0" encoding="UTF-8" standalone="no"?>
<!-- Created with Inkscape (http://www.inkscape.org/) -->

<svg
   xmlns:dc="http://purl.org/dc/elements/1.1/"
   xmlns:cc="http://creativecommons.org/ns#"
   xmlns:rdf="http://www.w3.org/1999/02/22-rdf-syntax-ns#"
   xmlns:svg="http://www.w3.org/2000/svg"
   xmlns="http://www.w3.org/2000/svg"
   version="1.2"
   width="542.10327"
   height="289.3324"
   viewBox="0 0 87.061803 46.466791"
   id="svg2">
  <metadata
     id="metadata356">
    <rdf:RDF>
      <cc:Work
         rdf:about="">
        <dc:format>image/svg+xml</dc:format>
        <dc:type
           rdf:resource="http://purl.org/dc/dcmitype/StillImage" />
        <dc:title></dc:title>
      </cc:Work>
    </rdf:RDF>
  </metadata>
  <defs
     id="defs354" />
  <text
     x="20.037951"
     y="-51.479305"
     id="text4"
     style="font-size:2.19950008px;text-anchor:start;fill:currentColor;font-family:Century Schoolbook L">
    <tspan
       id="tspan6" />
  </text>
  <line
     x1="0.90300018"
     y1="10.773994"
     x2="86.158798"
     y2="10.773994"
     id="line258"
     style="stroke:currentColor;stroke-width:0.2;stroke-linecap:round;stroke-linejoin:round" />
  <line
     x1="0.90300018"
     y1="8.7739944"
     x2="86.158798"
     y2="8.7739944"
     id="line260"
     style="stroke:currentColor;stroke-width:0.2;stroke-linecap:round;stroke-linejoin:round" />
  <line
     x1="0.90300018"
     y1="4.7739949"
     x2="86.158798"
     y2="4.7739949"
     id="line262"
     style="stroke:currentColor;stroke-width:0.2;stroke-linecap:round;stroke-linejoin:round" />
  <line
     x1="0.90300018"
     y1="2.7739947"
     x2="86.158798"
     y2="2.7739947"
     id="line264"
     style="stroke:currentColor;stroke-width:0.2;stroke-linecap:round;stroke-linejoin:round" />
  <path
     d="m 71.379,10.701199 0.808,-2.6159999 c -0.272,0.096 -0.56,0.184 -0.848,0.184 -0.368,0 -0.696,-0.264 -0.696,-0.632 0,-0.32 0.256,-0.576 0.576,-0.576 0.2,0 0.392,0.12 0.456,0.312 0.08,0.224 0.04,0.472 0.272,0.472 0.128,0 0.44,-0.408 0.48,-0.544 l 0.368,-1.208 c -0.272,0.096 -0.544,0.176 -0.832,0.176 -0.368,0 -0.696,-0.264 -0.696,-0.632 0,-0.32 0.264,-0.576 0.584,-0.576 0.2,0 0.384,0.12 0.448,0.312 0.08,0.224 0.04,0.472 0.272,0.472 0.12,0 0.4,-0.392 0.456,-0.504 0.048,-0.096 0.184,-0.096 0.224,0 l -1.432,5.3599999 c -0.064,0.056 -0.136,0.08 -0.216,0.08 -0.08,0 -0.16,-0.024 -0.224,-0.08 z"
     id="path266"
     style="fill:currentColor" />
  <path
     d="m 61.823,8.7011991 0.936,-2.608 c -0.272,0.096 -0.552,0.176 -0.84,0.176 -0.368,0 -0.696,-0.264 -0.696,-0.632 0,-0.32 0.264,-0.576 0.584,-0.576 0.2,0 0.384,0.12 0.448,0.312 0.08,0.224 0.048,0.472 0.28,0.472 0.128,0 0.432,-0.384 0.488,-0.504 0.048,-0.096 0.184,-0.096 0.224,0 l -0.984,3.36 c -0.064,0.056 -0.136,0.08 -0.216,0.08 -0.08,0 -0.16,-0.024 -0.224,-0.08 z"
     id="path268"
     style="fill:currentColor" />
  <path
     d="m 14.3268,6.0219985 h -2.84 c -0.048,0 -0.08,-0.032 -0.08,-0.08 v -1.088 c 0,-0.048 0.032,-0.08 0.08,-0.08 h 2.84 c 0.048,0 0.08,0.032 0.08,0.08 v 1.088 c 0,0.048 -0.032,0.08 -0.08,0.08 z"
     id="path274"
     style="fill:currentColor" />
  <path
     d="m 49.0592,7.6291991 c 0,-0.224 0.088,-0.336 0.32,-0.336 0.264,0 0.624,0.104 0.952,0.248 l -1.056,-1.264 c -0.056,-0.072 -0.08,-0.136 -0.08,-0.2 0,-0.272 0.4,-0.528 0.696,-0.792 0.2,-0.176 0.296,-0.416 0.296,-0.664 0,-0.192 -0.064,-0.392 -0.2,-0.552 l -0.28,-0.336 c -0.024,-0.024 -0.032,-0.056 -0.032,-0.08 0,-0.072 0.072,-0.12 0.136,-0.12 0.032,0 0.064,0.008 0.088,0.04 l 1.208,1.44 c 0.056,0.072 0.08,0.136 0.08,0.2 0,0.272 -0.4,0.528 -0.696,0.792 -0.2,0.176 -0.296,0.416 -0.296,0.664 0,0.192 0.056,0.392 0.192,0.552 l 0.672,0.792 c 0.024,0.024 0.032,0.056 0.032,0.08 0,0.072 -0.064,0.128 -0.128,0.128 -0.032,0 -0.072,-0.016 -0.096,-0.048 -0.144,-0.168 -0.504,-0.304 -0.776,-0.304 -0.328,0 -0.424,0.208 -0.424,0.536 0,0.28 0.088,0.592 0.224,0.752 0.04,0.048 0,0.104 -0.048,0.104 -0.016,0 -0.032,0 -0.048,-0.016 -0.36,-0.432 -0.736,-1.184 -0.736,-1.616 z"
     id="path276"
     style="fill:currentColor" />
  <path
     d="m 37.7592,8.6283997 h -2.84 c -0.048,0 -0.08,-0.032 -0.08,-0.08 v -1.088 c 0,-0.048 0.032,-0.08 0.08,-0.08 h 2.84 c 0.048,0 0.08,0.032 0.08,0.08 v 1.088 c 0,0.048 -0.032,0.08 -0.08,0.08 z"
     id="path278"
     style="fill:currentColor" />
  <line
     x1="0.90300018"
     y1="32.350006"
     x2="86.158798"
     y2="32.350006"
     id="line280"
     style="stroke:currentColor;stroke-width:0.2;stroke-linecap:round;stroke-linejoin:round" />
  <line
     x1="0.90300018"
     y1="30.350006"
     x2="86.158798"
     y2="30.350006"
     id="line282"
     style="stroke:currentColor;stroke-width:0.2;stroke-linecap:round;stroke-linejoin:round" />
  <line
     x1="0.90300018"
     y1="28.350006"
     x2="86.158798"
     y2="28.350006"
     id="line284"
     style="stroke:currentColor;stroke-width:0.2;stroke-linecap:round;stroke-linejoin:round" />
  <line
     x1="0.90300018"
     y1="26.350006"
     x2="86.158798"
     y2="26.350006"
     id="line286"
     style="stroke:currentColor;stroke-width:0.2;stroke-linecap:round;stroke-linejoin:round" />
  <line
     x1="0.90300018"
     y1="24.349998"
     x2="86.158798"
     y2="24.349998"
     id="line288"
     style="stroke:currentColor;stroke-width:0.2;stroke-linecap:round;stroke-linejoin:round" />
  <text
     x="69.435814"
     y="41.649406"
     id="text290"
     style="font-size:2.3296001px;text-anchor:start;fill:#808080;font-family:sans-serif">
    <tspan
       id="tspan292"
       style="fill:#808080">16th</tspan>
  </text>
  <text
     x="68.923813"
     y="44.827805"
     id="text294"
     style="font-size:2.3296001px;text-anchor:start;fill:#808080;font-family:sans-serif">
    <tspan
       id="tspan296"
       style="fill:#808080">Rests</tspan>
  </text>
  <path
     d="m 71.379,32.35 0.808,-2.616 c -0.272,0.096 -0.56,0.184 -0.848,0.184 -0.368,0 -0.696,-0.264 -0.696,-0.632 0,-0.32 0.256,-0.576 0.576,-0.576 0.2,0 0.392,0.12 0.456,0.312 0.08,0.224 0.04,0.472 0.272,0.472 0.128,0 0.44,-0.408 0.48,-0.544 l 0.368,-1.208 c -0.272,0.096 -0.544,0.176 -0.832,0.176 -0.368,0 -0.696,-0.264 -0.696,-0.632 0,-0.32 0.264,-0.576 0.584,-0.576 0.2,0 0.384,0.12 0.448,0.312 0.08,0.224 0.04,0.472 0.272,0.472 0.12,0 0.4,-0.392 0.456,-0.504 0.048,-0.096 0.184,-0.096 0.224,0 l -1.432,5.36 c -0.064,0.056 -0.136,0.08 -0.216,0.08 -0.08,0 -0.16,-0.024 -0.224,-0.08 z"
     id="path298"
     style="fill:currentColor" />
  <text
     x="60.26199"
     y="41.649406"
     id="text300"
     style="font-size:2.3296001px;text-anchor:start;fill:#808080;font-family:sans-serif">
    <tspan
       id="tspan302"
       style="fill:#808080">8th</tspan>
  </text>
  <text
     x="58.998592"
     y="44.827805"
     id="text304"
     style="font-size:2.3296001px;text-anchor:start;fill:#808080;font-family:sans-serif">
    <tspan
       id="tspan306"
       style="fill:#808080">Rests</tspan>
  </text>
  <path
     d="m 61.823,30.35 0.936,-2.608 c -0.272,0.096 -0.552,0.176 -0.84,0.176 -0.368,0 -0.696,-0.264 -0.696,-0.632 0,-0.32 0.264,-0.576 0.584,-0.576 0.2,0 0.384,0.12 0.448,0.312 0.08,0.224 0.048,0.472 0.28,0.472 0.128,0 0.432,-0.384 0.488,-0.504 0.048,-0.096 0.184,-0.096 0.224,0 l -0.984,3.36 c -0.064,0.056 -0.136,0.08 -0.216,0.08 -0.08,0 -0.16,-0.024 -0.224,-0.08 z"
     id="path308"
     style="fill:currentColor" />
  <g
     transform="translate(-1.9272004,0)"
     id="g3145">
    <text
       x="11.4068"
       y="41.649406"
       id="text312"
       style="font-size:2.3296001px;text-anchor:start;fill:#808080;font-family:sans-serif">
      <tspan
         id="tspan314"
         style="fill:#808080">Whole</tspan>
    </text>
    <text
       x="11.850801"
       y="44.827805"
       id="text316"
       style="font-size:2.3296001px;text-anchor:start;fill:#808080;font-family:sans-serif">
      <tspan
         id="tspan318"
         style="fill:#808080">Rests</tspan>
    </text>
  </g>
  <path
     d="m 14.3268,27.598 h -2.84 c -0.048,0 -0.08,-0.032 -0.08,-0.08 V 26.43 c 0,-0.048 0.032,-0.08 0.08,-0.08 h 2.84 c 0.048,0 0.08,0.032 0.08,0.08 v 1.088 c 0,0.048 -0.032,0.08 -0.08,0.08 z"
     id="path320"
     style="fill:currentColor" />
  <text
     x="45.709988"
     y="41.649406"
     id="text324"
     style="font-size:2.3296001px;text-anchor:start;fill:#808080;font-family:sans-serif">
    <tspan
       id="tspan326"
       style="fill:#808080">Quarter</tspan>
  </text>
  <text
     x="47.109787"
     y="44.827805"
     id="text328"
     style="font-size:2.3296001px;text-anchor:start;fill:#808080;font-family:sans-serif">
    <tspan
       id="tspan330"
       style="fill:#808080">Rests</tspan>
  </text>
  <path
     d="m 49.0592,29.278 c 0,-0.224 0.088,-0.336 0.32,-0.336 0.264,0 0.624,0.104 0.952,0.248 l -1.056,-1.264 c -0.056,-0.072 -0.08,-0.136 -0.08,-0.2 0,-0.272 0.4,-0.528 0.696,-0.792 0.2,-0.176 0.296,-0.416 0.296,-0.664 0,-0.192 -0.064,-0.392 -0.2,-0.552 l -0.28,-0.336 c -0.024,-0.024 -0.032,-0.056 -0.032,-0.08 0,-0.072 0.072,-0.12 0.136,-0.12 0.032,0 0.064,0.008 0.088,0.04 l 1.208,1.44 c 0.056,0.072 0.08,0.136 0.08,0.2 0,0.272 -0.4,0.528 -0.696,0.792 -0.2,0.176 -0.296,0.416 -0.296,0.664 0,0.192 0.056,0.392 0.192,0.552 l 0.672,0.792 c 0.024,0.024 0.032,0.056 0.032,0.08 0,0.072 -0.064,0.128 -0.128,0.128 -0.032,0 -0.072,-0.016 -0.096,-0.048 -0.144,-0.168 -0.504,-0.304 -0.776,-0.304 -0.328,0 -0.424,0.208 -0.424,0.536 0,0.28 0.088,0.592 0.224,0.752 0.04,0.048 0,0.104 -0.048,0.104 -0.016,0 -0.032,0 -0.048,-0.016 -0.36,-0.432 -0.736,-1.184 -0.736,-1.616 z"
     id="path332"
     style="fill:currentColor" />
  <text
     x="34.120995"
     y="41.649406"
     id="text334"
     style="font-size:2.3296001px;text-anchor:start;fill:#808080;font-family:sans-serif">
    <tspan
       id="tspan336"
       style="fill:#808080">Half</tspan>
  </text>
  <text
     x="33.233192"
     y="44.827805"
     id="text338"
     style="font-size:2.3296001px;text-anchor:start;fill:#808080;font-family:sans-serif">
    <tspan
       id="tspan340"
       style="fill:#808080">Rests</tspan>
  </text>
  <path
     d="m 37.7592,28.35 h -2.84 c -0.048,0 -0.08,-0.032 -0.08,-0.08 v -1.088 c 0,-0.048 0.032,-0.08 0.08,-0.08 h 2.84 c 0.048,0 0.08,0.032 0.08,0.08 v 1.088 c 0,0.048 -0.032,0.08 -0.08,0.08 z"
     id="path342"
     style="fill:currentColor" />
</svg>
