<?xml version="1.0" encoding="UTF-8" standalone="no"?>
<!-- Created with Inkscape (http://www.inkscape.org/) -->

<svg
   xmlns:dc="http://purl.org/dc/elements/1.1/"
   xmlns:cc="http://creativecommons.org/ns#"
   xmlns:rdf="http://www.w3.org/1999/02/22-rdf-syntax-ns#"
   xmlns:svg="http://www.w3.org/2000/svg"
   xmlns="http://www.w3.org/2000/svg"
   version="1.2"
   width="701.75708"
   height="497.6073"
   viewBox="0 0 112.70221 79.915747"
   id="svg2">
  <metadata
     id="metadata356">
    <rdf:RDF>
      <cc:Work
         rdf:about="">
        <dc:format>image/svg+xml</dc:format>
        <dc:type
           rdf:resource="http://purl.org/dc/dcmitype/StillImage" />
        <dc:title></dc:title>
      </cc:Work>
    </rdf:RDF>
  </metadata>
  <defs
     id="defs354" />
  <text
     x="20.040178"
     y="19.781937"
     id="text4"
     style="font-size:2.19950008px;text-anchor:start;fill:currentColor;font-family:Century Schoolbook L">
    <tspan
       id="tspan6" />
  </text>
  <line
     x1="0.90522814"
     y1="10.605999"
     x2="111.78823"
     y2="10.605999"
     id="line8"
     style="stroke:currentColor;stroke-width:0.2;stroke-linecap:round;stroke-linejoin:round" />
  <line
     x1="0.90522814"
     y1="8.605999"
     x2="111.78823"
     y2="8.605999"
     id="line10"
     style="stroke:currentColor;stroke-width:0.2;stroke-linecap:round;stroke-linejoin:round" />
  <line
     x1="0.90522814"
     y1="4.605999"
     x2="111.78823"
     y2="4.605999"
     id="line12"
     style="stroke:currentColor;stroke-width:0.2;stroke-linecap:round;stroke-linejoin:round" />
  <line
     x1="0.90522814"
     y1="2.6059997"
     x2="111.78823"
     y2="2.6059997"
     id="line14"
     style="stroke:currentColor;stroke-width:0.2;stroke-linecap:round;stroke-linejoin:round" />
  <path
     d="m 57.449627,1.6859995 c 0,1.584 1.672,2.68 1.672,4.264 0,0.568 -0.128,1.128 -0.336,1.656 -0.04,0.064 -0.096,0.096 -0.152,0.096 -0.104,0 -0.208,-0.088 -0.184,-0.216 0.208,-0.488 0.336,-1.008 0.336,-1.536 0,-0.832 -0.76,-1.664 -1.336,-2.264 h -0.128 v -2 h 0.128 z"
     id="path16"
     style="fill:currentColor" />
  <rect
     width="0.25999999"
     height="6"
     ry="0.079999998"
     x="57.189629"
     y="1.6059998"
     id="rect18"
     style="fill:currentColor" />
  <g
     transform="matrix(2,0,0,2,-27.647573,-6.0846005)"
     id="g20">
    <path
       d="m 0,-0.5 c 0,0.09 0.453,0.9 0.68,0.9 0.226,0 0.68,-0.81 0.68,-0.9 z m 0.1,0.1 c 0,-0.01 0.353,0.8 0.58,0.8 0.226,0 0.58,-0.81 0.58,-0.8 z m 0.05,0.05 c 0,0 0.303,0.75 0.53,0.75 0.226,0 0.48,-0.75 0.53,-0.75 z"
       transform="translate(41.1342,7.3453)"
       id="path22"
       style="fill:none;stroke:currentColor;stroke-width:0.15000001;stroke-linecap:round;stroke-linejoin:round" />
  </g>
  <rect
     width="0.25999999"
     height="6"
     ry="0.079999998"
     x="45.185627"
     y="1.6059998"
     id="rect24"
     style="fill:currentColor" />
  <g
     transform="matrix(2,0,0,2,-27.647573,-6.0846005)"
     id="g26">
    <path
       d="m 0,-0.5 c 0,0.09 0.453,0.9 0.68,0.9 0.226,0 0.68,-0.81 0.68,-0.9 z m 0.1,0.1 c 0,-0.01 0.353,0.8 0.58,0.8 0.226,0 0.58,-0.81 0.58,-0.8 z m 0.05,0.05 c 0,0 0.303,0.75 0.53,0.75 0.226,0 0.48,-0.75 0.53,-0.75 z"
       transform="translate(35.1322,7.3453)"
       id="path28"
       style="fill:none;stroke:currentColor;stroke-width:0.15000001;stroke-linecap:round;stroke-linejoin:round" />
  </g>
  <rect
     width="0.25999999"
     height="6"
     ry="0.079999998"
     x="31.361828"
     y="1.6059998"
     id="rect30"
     style="fill:currentColor" />
  <rect
     width="0.25999999"
     height="6"
     ry="0.079999998"
     x="30.781826"
     y="1.6059998"
     id="rect32"
     style="fill:currentColor" />
  <g
     transform="matrix(2,0,0,2,-27.647573,-6.0846005)"
     id="g34">
    <path
       d="m 0,-0.5 c 0,0.09 0.453,0.9 0.68,0.9 0.226,0 0.68,-0.81 0.68,-0.9 z m 0.1,0.1 c 0,-0.01 0.353,0.8 0.58,0.8 0.226,0 0.58,-0.81 0.58,-0.8 z m 0.05,0.05 c 0,0 0.303,0.75 0.53,0.75 0.226,0 0.48,-0.75 0.53,-0.75 z"
       transform="translate(27.9303,7.3453)"
       id="path36"
       style="fill:none;stroke:currentColor;stroke-width:0.15000001;stroke-linecap:round;stroke-linejoin:round" />
  </g>
  <polygon
     points="0.04,-0.2 4.552,-0.2 4.552,0.2 0.04,0.2 "
     transform="matrix(2,0,0,2,66.793627,2.6059995)"
     id="polygon38"
     style="fill:currentColor;stroke:currentColor;stroke-width:0.08;stroke-linecap:round;stroke-linejoin:round" />
  <polygon
     points="0.04,-0.2 3.352,-0.2 3.352,0.2 0.04,0.2 "
     transform="matrix(2,0,0,2,92.525227,2.6059995)"
     id="polygon40"
     style="fill:currentColor;stroke:currentColor;stroke-width:0.08;stroke-linecap:round;stroke-linejoin:round" />
  <polygon
     points="0.04,-0.2 3.352,-0.2 3.352,0.2 0.04,0.2 "
     transform="matrix(2,0,0,2,92.525227,4.2259995)"
     id="polygon42"
     style="fill:currentColor;stroke:currentColor;stroke-width:0.08;stroke-linecap:round;stroke-linejoin:round" />
  <rect
     width="0.25999999"
     height="6"
     ry="0.079999998"
     x="85.321426"
     y="1.6059998"
     id="rect44"
     style="fill:currentColor" />
  <g
     transform="matrix(2,0,0,2,-27.647573,-6.0846005)"
     id="g46">
    <path
       d="m 0,-0.5 c 0,0.09 0.453,0.9 0.68,0.9 0.226,0 0.68,-0.81 0.68,-0.9 z m 0.1,0.1 c 0,-0.01 0.353,0.8 0.58,0.8 0.226,0 0.58,-0.81 0.58,-0.8 z m 0.05,0.05 c 0,0 0.303,0.75 0.53,0.75 0.226,0 0.48,-0.75 0.53,-0.75 z"
       transform="translate(55.2001,7.3453)"
       id="path48"
       style="fill:none;stroke:currentColor;stroke-width:0.15000001;stroke-linecap:round;stroke-linejoin:round" />
  </g>
  <rect
     width="0.25999999"
     height="5"
     ry="0.079999998"
     x="75.71743"
     y="2.6059997"
     id="rect50"
     style="fill:currentColor" />
  <g
     transform="matrix(2,0,0,2,-27.647573,-6.0846005)"
     id="g52">
    <path
       d="m 0,-0.5 c 0,0.09 0.453,0.9 0.68,0.9 0.226,0 0.68,-0.81 0.68,-0.9 z m 0.1,0.1 c 0,-0.01 0.353,0.8 0.58,0.8 0.226,0 0.58,-0.81 0.58,-0.8 z m 0.05,0.05 c 0,0 0.303,0.75 0.53,0.75 0.226,0 0.48,-0.75 0.53,-0.75 z"
       transform="translate(50.3981,7.3453)"
       id="path54"
       style="fill:none;stroke:currentColor;stroke-width:0.15000001;stroke-linecap:round;stroke-linejoin:round" />
  </g>
  <rect
     width="0.25999999"
     height="5"
     ry="0.079999998"
     x="66.793625"
     y="2.6059997"
     id="rect56"
     style="fill:currentColor" />
  <g
     transform="matrix(2,0,0,2,-27.647573,-6.0846005)"
     id="g58">
    <path
       d="m 0,-0.5 c 0,0.09 0.453,0.9 0.68,0.9 0.226,0 0.68,-0.81 0.68,-0.9 z m 0.1,0.1 c 0,-0.01 0.353,0.8 0.58,0.8 0.226,0 0.58,-0.81 0.58,-0.8 z m 0.05,0.05 c 0,0 0.303,0.75 0.53,0.75 0.226,0 0.48,-0.75 0.53,-0.75 z"
       transform="translate(45.9362,7.3453)"
       id="path60"
       style="fill:none;stroke:currentColor;stroke-width:0.15000001;stroke-linecap:round;stroke-linejoin:round" />
  </g>
  <path
     d="m 85.581427,1.6859995 c 0,1.424 1.624,2.336 1.624,3.76 0,0.264 -0.072,0.52 -0.184,0.76 0.144,0.296 0.232,0.6 0.232,0.936 0,0.504 -0.128,1 -0.336,1.464 -0.04,0.064 -0.096,0.096 -0.152,0.096 -0.104,0 -0.208,-0.088 -0.184,-0.216 0.208,-0.416 0.336,-0.88 0.336,-1.344 0,-0.776 -0.76,-1.528 -1.336,-2.056 v 0.6 h -0.128 v -4 h 0.128 z m 1.224,4.136 c 0.04,-0.12 0.056,-0.248 0.056,-0.376 0,-0.768 -0.728,-1.52 -1.28,-2.056 0,0.944 0.728,1.648 1.224,2.432 z"
     id="path62"
     style="fill:currentColor" />
  <g
     transform="matrix(2,0,0,2,-27.647573,-6.0846005)"
     id="g64">
    <path
       d="m 0,-0.5 c 0,0.09 0.5889,0.9 0.884,0.9 0.2938,0 0.884,-0.81 0.884,-0.9 z m 0.2,0.15 c 0,0 0.3889,0.75 0.684,0.75 0.2938,0 0.684,-0.75 0.684,-0.75 z m 0.1,0 c 0,0 0.2889,0.75 0.584,0.75 0.2938,0 0.584,-0.75 0.584,-0.75 z"
       transform="translate(19.5283,7.3453)"
       id="path66"
       style="fill:none;stroke:currentColor;stroke-width:0.15000001;stroke-linecap:round;stroke-linejoin:round" />
  </g>
  <rect
     width="0.25999999"
     height="5"
     ry="0.079999998"
     x="99.049225"
     y="2.6059997"
     id="rect72"
     style="fill:currentColor" />
  <g
     transform="matrix(2,0,0,2,-27.647573,-6.0846005)"
     id="g74">
    <path
       d="m 0,-0.5 c 0,0.09 0.453,0.9 0.68,0.9 0.226,0 0.68,-0.81 0.68,-0.9 z m 0.1,0.1 c 0,-0.01 0.353,0.8 0.58,0.8 0.226,0 0.58,-0.81 0.58,-0.8 z m 0.05,0.05 c 0,0 0.303,0.75 0.53,0.75 0.226,0 0.48,-0.75 0.53,-0.75 z"
       transform="translate(62.064,7.3453)"
       id="path76"
       style="fill:none;stroke:currentColor;stroke-width:0.15000001;stroke-linecap:round;stroke-linejoin:round" />
  </g>
  <rect
     width="0.25999999"
     height="5"
     ry="0.079999998"
     x="92.52523"
     y="2.6059997"
     id="rect78"
     style="fill:currentColor" />
  <g
     transform="matrix(2,0,0,2,-27.647573,-6.0846005)"
     id="g80">
    <path
       d="m 0,-0.5 c 0,0.09 0.453,0.9 0.68,0.9 0.226,0 0.68,-0.81 0.68,-0.9 z m 0.1,0.1 c 0,-0.01 0.353,0.8 0.58,0.8 0.226,0 0.58,-0.81 0.58,-0.8 z m 0.05,0.05 c 0,0 0.303,0.75 0.53,0.75 0.226,0 0.48,-0.75 0.53,-0.75 z"
       transform="translate(58.802,7.3453)"
       id="path82"
       style="fill:none;stroke:currentColor;stroke-width:0.15000001;stroke-linecap:round;stroke-linejoin:round" />
  </g>
  <line
     x1="0.90522814"
     y1="38.606003"
     x2="111.78823"
     y2="38.606003"
     id="line84"
     style="stroke:currentColor;stroke-width:0.2;stroke-linecap:round;stroke-linejoin:round" />
  <line
     x1="0.90522814"
     y1="36.606003"
     x2="111.78823"
     y2="36.606003"
     id="line86"
     style="stroke:currentColor;stroke-width:0.2;stroke-linecap:round;stroke-linejoin:round" />
  <line
     x1="0.90522814"
     y1="32.606003"
     x2="111.78823"
     y2="32.606003"
     id="line88"
     style="stroke:currentColor;stroke-width:0.2;stroke-linecap:round;stroke-linejoin:round" />
  <line
     x1="0.90522814"
     y1="30.606001"
     x2="111.78823"
     y2="30.606001"
     id="line90"
     style="stroke:currentColor;stroke-width:0.2;stroke-linecap:round;stroke-linejoin:round" />
  <path
     d="m 57.449627,29.685999 c 0,1.584 1.672,2.68 1.672,4.264 0,0.568 -0.128,1.128 -0.336,1.656 -0.04,0.064 -0.096,0.096 -0.152,0.096 -0.104,0 -0.208,-0.088 -0.184,-0.216 0.208,-0.488 0.336,-1.008 0.336,-1.536 0,-0.832 -0.76,-1.664 -1.336,-2.264 h -0.128 v -2 h 0.128 z"
     id="path92"
     style="fill:currentColor" />
  <rect
     width="0.25999999"
     height="8.0900002"
     ry="0.079999998"
     x="57.189629"
     y="29.605999"
     id="rect94"
     style="fill:currentColor" />
  <g
     transform="matrix(2,0,0,2,-27.647573,-6.0846005)"
     id="g96">
    <path
       d="m 0,0.5 c 0,-0.09 0.453,-0.9 0.68,-0.9 0.226,0 0.68,0.81 0.68,0.9 z"
       transform="translate(41.1342,21.3453)"
       id="path98"
       style="fill:currentColor;stroke:currentColor;stroke-width:0.1;stroke-linecap:round;stroke-linejoin:round" />
  </g>
  <rect
     width="0.25999999"
     height="8.0900002"
     ry="0.079999998"
     x="45.185627"
     y="29.605999"
     id="rect100"
     style="fill:currentColor" />
  <g
     transform="matrix(2,0,0,2,-27.647573,-6.0846005)"
     id="g102">
    <path
       d="m 0,0.5 c 0,-0.09 0.453,-0.9 0.68,-0.9 0.226,0 0.68,0.81 0.68,0.9 z"
       transform="translate(35.1322,21.3453)"
       id="path104"
       style="fill:currentColor;stroke:currentColor;stroke-width:0.1;stroke-linecap:round;stroke-linejoin:round" />
  </g>
  <rect
     width="0.25999999"
     height="8.0900002"
     ry="0.079999998"
     x="31.361828"
     y="29.605999"
     id="rect106"
     style="fill:currentColor" />
  <rect
     width="0.25999999"
     height="8.0900002"
     ry="0.079999998"
     x="30.781826"
     y="29.605999"
     id="rect108"
     style="fill:currentColor" />
  <g
     transform="matrix(2,0,0,2,-27.647573,-6.0846005)"
     id="g110">
    <path
       d="m 0,0.5 c 0,-0.09 0.453,-0.9 0.68,-0.9 0.226,0 0.68,0.81 0.68,0.9 z"
       transform="translate(27.9303,21.3453)"
       id="path112"
       style="fill:currentColor;stroke:currentColor;stroke-width:0.1;stroke-linecap:round;stroke-linejoin:round" />
  </g>
  <polygon
     points="0.04,-0.2 4.552,-0.2 4.552,0.2 0.04,0.2 "
     transform="matrix(2,0,0,2,66.793627,30.605999)"
     id="polygon114"
     style="fill:currentColor;stroke:currentColor;stroke-width:0.08;stroke-linecap:round;stroke-linejoin:round" />
  <polygon
     points="0.04,-0.2 3.352,-0.2 3.352,0.2 0.04,0.2 "
     transform="matrix(2,0,0,2,92.525227,30.605999)"
     id="polygon116"
     style="fill:currentColor;stroke:currentColor;stroke-width:0.08;stroke-linecap:round;stroke-linejoin:round" />
  <polygon
     points="0.04,-0.2 3.352,-0.2 3.352,0.2 0.04,0.2 "
     transform="matrix(2,0,0,2,92.525227,32.225999)"
     id="polygon118"
     style="fill:currentColor;stroke:currentColor;stroke-width:0.08;stroke-linecap:round;stroke-linejoin:round" />
  <rect
     width="0.25999999"
     height="8.0900002"
     ry="0.079999998"
     x="85.321426"
     y="29.605999"
     id="rect120"
     style="fill:currentColor" />
  <g
     transform="matrix(2,0,0,2,-27.647573,-6.0846005)"
     id="g122">
    <path
       d="m 0,0.5 c 0,-0.09 0.453,-0.9 0.68,-0.9 0.226,0 0.68,0.81 0.68,0.9 z"
       transform="translate(55.2001,21.3453)"
       id="path124"
       style="fill:currentColor;stroke:currentColor;stroke-width:0.1;stroke-linecap:round;stroke-linejoin:round" />
  </g>
  <rect
     width="0.25999999"
     height="7.0900002"
     ry="0.079999998"
     x="75.71743"
     y="30.606001"
     id="rect126"
     style="fill:currentColor" />
  <g
     transform="matrix(2,0,0,2,-27.647573,-6.0846005)"
     id="g128">
    <path
       d="m 0,0.5 c 0,-0.09 0.453,-0.9 0.68,-0.9 0.226,0 0.68,0.81 0.68,0.9 z"
       transform="translate(50.3981,21.3453)"
       id="path130"
       style="fill:currentColor;stroke:currentColor;stroke-width:0.1;stroke-linecap:round;stroke-linejoin:round" />
  </g>
  <rect
     width="0.25999999"
     height="7.0900002"
     ry="0.079999998"
     x="66.793625"
     y="30.606001"
     id="rect132"
     style="fill:currentColor" />
  <g
     transform="matrix(2,0,0,2,-27.647573,-6.0846005)"
     id="g134">
    <path
       d="m 0,0.5 c 0,-0.09 0.453,-0.9 0.68,-0.9 0.226,0 0.68,0.81 0.68,0.9 z"
       transform="translate(45.9362,21.3453)"
       id="path136"
       style="fill:currentColor;stroke:currentColor;stroke-width:0.1;stroke-linecap:round;stroke-linejoin:round" />
  </g>
  <path
     d="m 85.581427,29.685999 c 0,1.424 1.624,2.336 1.624,3.76 0,0.264 -0.072,0.52 -0.184,0.76 0.144,0.296 0.232,0.6 0.232,0.936 0,0.504 -0.128,1 -0.336,1.464 -0.04,0.064 -0.096,0.096 -0.152,0.096 -0.104,0 -0.208,-0.088 -0.184,-0.216 0.208,-0.416 0.336,-0.88 0.336,-1.344 0,-0.776 -0.76,-1.528 -1.336,-2.056 v 0.6 h -0.128 v -4 h 0.128 z m 1.224,4.136 c 0.04,-0.12 0.056,-0.248 0.056,-0.376 0,-0.768 -0.728,-1.52 -1.28,-2.056 0,0.944 0.728,1.648 1.224,2.432 z"
     id="path138"
     style="fill:currentColor" />
  <g
     transform="matrix(2,0,0,2,-27.647573,-6.0846005)"
     id="g140">
    <path
       d="m 0,0.5 c 0,-0.09 0.5889,-0.9 0.884,-0.9 0.2938,0 0.884,0.81 0.884,0.9 z"
       transform="translate(19.5283,21.3453)"
       id="path142"
       style="fill:currentColor;stroke:currentColor;stroke-width:0.1;stroke-linecap:round;stroke-linejoin:round" />
  </g>
  <rect
     width="0.25999999"
     height="7.0900002"
     ry="0.079999998"
     x="99.049225"
     y="30.606001"
     id="rect148"
     style="fill:currentColor" />
  <g
     transform="matrix(2,0,0,2,-27.647573,-6.0846005)"
     id="g150">
    <path
       d="m 0,0.5 c 0,-0.09 0.453,-0.9 0.68,-0.9 0.226,0 0.68,0.81 0.68,0.9 z"
       transform="translate(62.064,21.3453)"
       id="path152"
       style="fill:currentColor;stroke:currentColor;stroke-width:0.1;stroke-linecap:round;stroke-linejoin:round" />
  </g>
  <rect
     width="0.25999999"
     height="7.0900002"
     ry="0.079999998"
     x="92.52523"
     y="30.606001"
     id="rect154"
     style="fill:currentColor" />
  <g
     transform="matrix(2,0,0,2,-27.647573,-6.0846005)"
     id="g156">
    <path
       d="m 0,0.5 c 0,-0.09 0.453,-0.9 0.68,-0.9 0.226,0 0.68,0.81 0.68,0.9 z"
       transform="translate(58.802,21.3453)"
       id="path158"
       style="fill:currentColor;stroke:currentColor;stroke-width:0.1;stroke-linecap:round;stroke-linejoin:round" />
  </g>
  <line
     x1="0.90522814"
     y1="66.606003"
     x2="111.61303"
     y2="66.606003"
     id="line160"
     style="stroke:currentColor;stroke-width:0.2;stroke-linecap:round;stroke-linejoin:round" />
  <line
     x1="0.90522814"
     y1="64.606003"
     x2="111.61303"
     y2="64.606003"
     id="line162"
     style="stroke:currentColor;stroke-width:0.2;stroke-linecap:round;stroke-linejoin:round" />
  <line
     x1="0.90522814"
     y1="62.605999"
     x2="111.61303"
     y2="62.605999"
     id="line164"
     style="stroke:currentColor;stroke-width:0.2;stroke-linecap:round;stroke-linejoin:round" />
  <line
     x1="0.90522814"
     y1="60.605999"
     x2="111.61303"
     y2="60.605999"
     id="line166"
     style="stroke:currentColor;stroke-width:0.2;stroke-linecap:round;stroke-linejoin:round" />
  <line
     x1="0.90522814"
     y1="58.605999"
     x2="111.61303"
     y2="58.605999"
     id="line168"
     style="stroke:currentColor;stroke-width:0.2;stroke-linecap:round;stroke-linejoin:round" />
  <path
     d="m 65.984827,63.501999 c 0.448,0 0.872,0.232 0.872,0.728 0,0.576 -0.448,0.968 -0.824,1.192 -0.288,0.168 -0.608,0.288 -0.936,0.288 -0.448,0 -0.872,-0.232 -0.872,-0.728 0,-0.576 0.448,-0.968 0.824,-1.192 0.288,-0.168 0.608,-0.288 0.936,-0.288 z"
     id="path170"
     style="fill:currentColor" />
  <path
     d="m 57.253227,57.685999 c 0,1.584 1.672,2.68 1.672,4.264 0,0.568 -0.128,1.128 -0.336,1.656 -0.04,0.064 -0.096,0.096 -0.152,0.096 -0.104,0 -0.208,-0.088 -0.184,-0.216 0.208,-0.488 0.336,-1.008 0.336,-1.536 0,-0.832 -0.76,-1.664 -1.336,-2.264 h -0.128 v -2 h 0.128 z"
     id="path172"
     style="fill:currentColor" />
  <rect
     width="0.25999999"
     height="6.6244001"
     ry="0.079999998"
     x="56.993225"
     y="57.605999"
     id="rect174"
     style="fill:currentColor" />
  <text
     x="54.059029"
     y="75.606003"
     id="text176"
     style="font-size:2.19959998px;text-anchor:start;fill:#808080;font-family:sans-serif">
    <tspan
       id="tspan178"
       style="fill:#808080">8th</tspan>
  </text>
  <text
     x="52.727627"
     y="78.278603"
     id="text180"
     style="font-size:2.19959998px;text-anchor:start;fill:#808080;font-family:sans-serif">
    <tspan
       id="tspan182"
       style="fill:#808080">Notes</tspan>
  </text>
  <path
     d="m 56.380827,63.501999 c 0.448,0 0.872,0.232 0.872,0.728 0,0.576 -0.448,0.968 -0.824,1.192 -0.288,0.168 -0.608,0.288 -0.936,0.288 -0.448,0 -0.872,-0.232 -0.872,-0.728 0,-0.576 0.448,-0.968 0.824,-1.192 0.288,-0.168 0.608,-0.288 0.936,-0.288 z"
     id="path184"
     style="fill:currentColor" />
  <rect
     width="0.25999999"
     height="6.6244001"
     ry="0.079999998"
     x="44.989227"
     y="57.605999"
     id="rect186"
     style="fill:currentColor" />
  <text
     x="39.596828"
     y="75.606003"
     id="text188"
     style="font-size:2.19959998px;text-anchor:start;fill:#808080;font-family:sans-serif">
    <tspan
       id="tspan190"
       style="fill:#808080">Quarter</tspan>
  </text>
  <text
     x="40.723625"
     y="78.278603"
     id="text192"
     style="font-size:2.19959998px;text-anchor:start;fill:#808080;font-family:sans-serif">
    <tspan
       id="tspan194"
       style="fill:#808080">Notes</tspan>
  </text>
  <path
     d="m 44.376827,63.501999 c 0.448,0 0.872,0.232 0.872,0.728 0,0.576 -0.448,0.968 -0.824,1.192 -0.288,0.168 -0.608,0.288 -0.936,0.288 -0.448,0 -0.872,-0.232 -0.872,-0.728 0,-0.576 0.448,-0.968 0.824,-1.192 0.288,-0.168 0.608,-0.288 0.936,-0.288 z"
     id="path196"
     style="fill:currentColor" />
  <rect
     width="0.25999999"
     height="6.4772"
     ry="0.079999998"
     x="30.733027"
     y="57.605999"
     id="rect198"
     style="fill:currentColor" />
  <polygon
     points="0.04,-0.2 4.5081,-0.2 4.5081,0.2 0.04,0.2 "
     transform="matrix(2,0,0,2,66.597027,58.605999)"
     id="polygon200"
     style="fill:currentColor;stroke:currentColor;stroke-width:0.08;stroke-linecap:round;stroke-linejoin:round" />
  <polygon
     points="0.04,-0.2 3.3081,-0.2 3.3081,0.2 0.04,0.2 "
     transform="matrix(2,0,0,2,92.241227,58.605999)"
     id="polygon202"
     style="fill:currentColor;stroke:currentColor;stroke-width:0.08;stroke-linecap:round;stroke-linejoin:round" />
  <polygon
     points="0.04,-0.2 3.3081,-0.2 3.3081,0.2 0.04,0.2 "
     transform="matrix(2,0,0,2,92.241227,60.225999)"
     id="polygon204"
     style="fill:currentColor;stroke:currentColor;stroke-width:0.08;stroke-linecap:round;stroke-linejoin:round" />
  <rect
     width="0.25999999"
     height="6.6244001"
     ry="0.079999998"
     x="85.037224"
     y="57.605999"
     id="rect206"
     style="fill:currentColor" />
  <text
     x="81.45443"
     y="75.606003"
     id="text208"
     style="font-size:2.19959998px;text-anchor:start;fill:#808080;font-family:sans-serif">
    <tspan
       id="tspan210"
       style="fill:#808080">16th</tspan>
  </text>
  <text
     x="80.771629"
     y="78.278603"
     id="text212"
     style="font-size:2.19959998px;text-anchor:start;fill:#808080;font-family:sans-serif">
    <tspan
       id="tspan214"
       style="fill:#808080">Notes</tspan>
  </text>
  <path
     d="m 84.424827,63.501999 c 0.448,0 0.872,0.232 0.872,0.728 0,0.576 -0.448,0.968 -0.824,1.192 -0.288,0.168 -0.608,0.288 -0.936,0.288 -0.448,0 -0.872,-0.232 -0.872,-0.728 0,-0.576 0.448,-0.968 0.824,-1.192 0.288,-0.168 0.608,-0.288 0.936,-0.288 z"
     id="path216"
     style="fill:currentColor" />
  <rect
     width="0.25999999"
     height="5.6244001"
     ry="0.079999998"
     x="75.433426"
     y="58.605999"
     id="rect218"
     style="fill:currentColor" />
  <path
     d="m 74.821027,63.501999 c 0.448,0 0.872,0.232 0.872,0.728 0,0.576 -0.448,0.968 -0.824,1.192 -0.288,0.168 -0.608,0.288 -0.936,0.288 -0.448,0 -0.872,-0.232 -0.872,-0.728 0,-0.576 0.448,-0.968 0.824,-1.192 0.288,-0.168 0.608,-0.288 0.936,-0.288 z"
     id="path220"
     style="fill:currentColor" />
  <rect
     width="0.25999999"
     height="5.6244001"
     ry="0.079999998"
     x="66.597023"
     y="58.605999"
     id="rect222"
     style="fill:currentColor" />
  <path
     d="m 85.297227,57.685999 c 0,1.424 1.624,2.336 1.624,3.76 0,0.264 -0.072,0.52 -0.184,0.76 0.144,0.296 0.232,0.6 0.232,0.936 0,0.504 -0.128,1 -0.336,1.464 -0.04,0.064 -0.096,0.096 -0.152,0.096 -0.104,0 -0.208,-0.088 -0.184,-0.216 0.208,-0.416 0.336,-0.88 0.336,-1.344 0,-0.776 -0.76,-1.528 -1.336,-2.056 v 0.6 h -0.128 v -4 h 0.128 z m 1.224,4.136 c 0.04,-0.12 0.056,-0.248 0.056,-0.376 0,-0.768 -0.728,-1.52 -1.28,-2.056 0,0.944 0.728,1.648 1.224,2.432 z"
     id="path224"
     style="fill:currentColor" />
  <text
     x="9.9064274"
     y="75.606003"
     id="text226"
     style="font-size:2.19959998px;text-anchor:start;fill:#808080;font-family:sans-serif">
    <tspan
       id="tspan228"
       style="fill:#808080">Whole</tspan>
  </text>
  <text
     x="10.179626"
     y="78.278603"
     id="text230"
     style="font-size:2.19959998px;text-anchor:start;fill:#808080;font-family:sans-serif">
    <tspan
       id="tspan232"
       style="fill:#808080">Notes</tspan>
  </text>
  <path
     d="m 13.129027,63.709999 c -0.4,0 -0.552,0.344 -0.552,0.704 0,0.616 0.456,1.088 1.072,1.088 0.4,0 0.552,-0.344 0.552,-0.704 0,-0.616 -0.456,-1.088 -1.072,-1.088 z m 2.24,0.896 c 0,0.344 -0.28,0.608 -0.584,0.776 -0.424,0.24 -0.904,0.328 -1.392,0.328 -0.488,0 -0.976,-0.088 -1.4,-0.328 -0.304,-0.168 -0.584,-0.432 -0.584,-0.776 0,-0.344 0.28,-0.608 0.584,-0.776 0.424,-0.24 0.912,-0.328 1.4,-0.328 0.488,0 0.968,0.088 1.392,0.328 0.304,0.168 0.584,0.432 0.584,0.776 z"
     id="path234"
     style="fill:currentColor" />
  <text
     x="27.383627"
     y="75.606003"
     id="text238"
     style="font-size:2.19959998px;text-anchor:start;fill:#808080;font-family:sans-serif">
    <tspan
       id="tspan240"
       style="fill:#808080">Half</tspan>
  </text>
  <text
     x="26.393427"
     y="78.278603"
     id="text242"
     style="font-size:2.19959998px;text-anchor:start;fill:#808080;font-family:sans-serif">
    <tspan
       id="tspan244"
       style="fill:#808080">Notes</tspan>
  </text>
  <path
     d="m 30.733027,64.085999 c 0,-0.192 -0.168,-0.328 -0.336,-0.328 -0.032,0 -0.064,0 -0.096,0.008 -0.248,0.072 -0.616,0.32 -0.912,0.512 -0.296,0.192 -0.672,0.424 -0.832,0.624 -0.056,0.064 -0.088,0.144 -0.088,0.224 0,0.192 0.168,0.328 0.336,0.328 0.032,0 0.064,0 0.096,-0.008 0.248,-0.072 0.624,-0.32 0.92,-0.512 0.296,-0.192 0.672,-0.424 0.832,-0.624 0.056,-0.064 0.08,-0.144 0.08,-0.224 z m -0.408,-0.576 c 0.376,0 0.664,0.168 0.664,0.576 0,0.152 -0.032,0.296 -0.08,0.448 -0.096,0.304 -0.256,0.592 -0.52,0.768 -0.432,0.288 -0.904,0.408 -1.504,0.408 -0.376,0 -0.672,-0.176 -0.672,-0.584 0,-0.152 0.04,-0.296 0.088,-0.448 0.096,-0.304 0.248,-0.592 0.512,-0.768 0.432,-0.288 0.912,-0.4 1.512,-0.4 z"
     id="path246"
     style="fill:currentColor" />
  <rect
     width="0.25999999"
     height="5.6244001"
     ry="0.079999998"
     x="98.677429"
     y="58.605999"
     id="rect250"
     style="fill:currentColor" />
  <path
     d="m 98.065027,63.501999 c 0.448,0 0.872,0.232 0.872,0.728 0,0.576 -0.448,0.968 -0.824,1.192 -0.288,0.168 -0.608,0.288 -0.936,0.288 -0.448,0 -0.872,-0.232 -0.872,-0.728 0,-0.576 0.448,-0.968 0.824,-1.192 0.288,-0.168 0.608,-0.288 0.936,-0.288 z"
     id="path252"
     style="fill:currentColor" />
  <rect
     width="0.25999999"
     height="5.6244001"
     ry="0.079999998"
     x="92.241226"
     y="58.605999"
     id="rect254"
     style="fill:currentColor" />
  <path
     d="m 91.628827,63.501999 c 0.448,0 0.872,0.232 0.872,0.728 0,0.576 -0.448,0.968 -0.824,1.192 -0.288,0.168 -0.608,0.288 -0.936,0.288 -0.448,0 -0.872,-0.232 -0.872,-0.728 0,-0.576 0.448,-0.968 0.824,-1.192 0.288,-0.168 0.608,-0.288 0.936,-0.288 z"
     id="path256"
     style="fill:currentColor" />
</svg>
