\version "2.17.19"

\include "twinnote-scripts.ly"

#(set-default-paper-size "letter")
\pointAndClickOff

\header {
  title = "Für Elise"
  subtitle = "Clavierstuck in A Minor - WoO 59"
  composer = "Ludwig van Beethoven"
  mutopiatitle = "Für Elise"
  mutopiacomposer = "BeethovenLv"
  mutopiaopus = "WoO 59"
  mutopiainstrument = "Piano"
  date = "1810"
  source = "Breitkopf & Härtel"
  style = "Classical"
  copyright = "Public Domain"
  maintainer = "Stelios Samelis"

  footer = "Mutopia-2012/12/23-931"
  tagline = \markup { \override #'(box-padding . 1.0) \override #'(baseline-skip . 2.7) \box \center-column { \small \line { Sheet music from \with-url #"http://www.MutopiaProject.org" \line { \concat { \teeny www. \normalsize MutopiaProject \teeny .org } \hspace #0.5 } • \hspace #0.5 \italic Free to download, with the \italic freedom to distribute, modify and perform. } \line { \small \line { Typeset using \with-url #"http://www.LilyPond.org" \line { \concat { \teeny www. \normalsize LilyPond \teeny .org }} by \concat { \maintainer . } \hspace #0.5 Reference: \footer } } \line { \small \line { Transcribed into \with-url #"http://twinnote.org" TwinNote music notation using \with-url #"http://www.LilyPond.org" \line { \concat { \teeny www. \normalsize LilyPond \teeny .org }} by Paul Morris. \hspace #0.5 Details: \with-url #"http://twinnote.org" http://twinnote.org }} \line { \teeny \line { This sheet music has been placed in the public domain by the typesetter, for details \concat { see: \hspace #0.3 \with-url #"http://creativecommons.org/licenses/publicdomain" http://creativecommons.org/licenses/publicdomain } } } } }
}

upMusic = {
  \clef treble
  \key a \minor
  \time 3/8
  \override Score.MetronomeMark #'transparent = ##t
  \tempo 4 = 60 % note: was 72 originally
  \partial 8
  \repeat volta 2 {
     e''16\pp^\markup { \bold "Poco moto." } dis'' e'' dis'' e'' b' d'' c'' a'8 r16 c' e' a' b'8 r16 e' gis' b'
    c''8 r16 e' e'' dis'' e'' dis'' e'' b' d'' c'' a'8 r16 c' e' a' b'8 r16 e' c'' b'
  }
  \alternative {
    { a'4 } { a'8 \bar "" r16 b' \set Timing.measurePosition = #(ly:make-moment -1 8) c''16 d'' }
  }
  \repeat volta 2 {
    e''8. g'16[ f'' e''] d''8. f'16[ e'' d''] c''8. e'16[ d'' c''] b'8 r16 e'[ e''] r r e''[ e'''] r r dis''
    e''8 r16 dis'' e'' dis'' e''16 dis'' e'' b' d'' c''
    a'8 r16 c' e' a' b'8 r16 e' gis' b' c''8 r16 e' e'' dis'' e'' dis'' e'' b' d'' c'' a'8 r16 c' e' a' b'8 r16 e' c'' b'
  }
  \alternative { { a'8 r16 b'[ c'' d''] } { a'8 r16 <e' c''>[ <f' c''> \snhs #'(0 1 0) <e' g' c''>] } }

  \grace { f'16[ a'] } c''4 f''16. e''32 e''8([ d'']) bes''16. a''32 a''16( g'' f'' e'' d'' c'')
  bes'8[ a'] \appoggiatura bes'32 a'32[ g' a' bes'] c''4 d''16[ dis''] e''8. e''16[ f'' a'] c''4 d''16. b'32
  c''32[ g'' g' g''] a'[ g'' b' g''] c''[ g'' d'' g''] e''[ g'' c''' b''] a''[ g'' f'' e''] d''[ g'' f'' d'']
  c''32[ g'' g' g''] a'[ g'' b' g''] c''[ g'' d'' g''] e''[ g'' c''' b''] a''[ g'' f'' e''] d''[ g'' f'' d'']
  e''32[ f'' e'' dis''] e''[ b' e'' dis''] e''[ b' e'' dis''] e''8. b'16[ e'' dis'']
  e''8. b'16([ e'']) dis''( e'') dis''([ e'']) dis''([ e'']) dis''( e'') dis'' e'' b' d'' c''
  a'8 r16 c' e' a' b'8 r16 e' gis' b' c''8 r16 e' e'' dis'' e'' dis'' e'' b' d'' c'' a'8 r16 c' e' a' b'8 r16 e' c'' b'
  a'8 r16 b'16 c'' d'' e''8. g'16[ f'' e''] d''8. f'16[ e'' d''] c''8. e'16[ d'' c''] b'8 r16 e'[ e''] r
  r16 e''[ e'''] r r dis''( e'') r r dis''[ e'' dis''] e'' dis'' e'' b' d'' c''
  a'8 r16 c' e' a' b'8 r16 e' gis' b' c''8 r16 e' e'' dis'' e'' dis'' e'' b' d'' c'' a'8 r16 c' e' a' b'8 r16 e' c'' b'

  a'8 r r \snhs #'(0 1 -1 1) <e' g' bes' cis''>4. <f' a' d''>4 <cis'' e''>16[ \snhs #'(-1 0) <d'' f''>]  \snhs #'(0 -1 0) <gis' d'' f''>4  \snhs #'(0 -1 0) <gis' d'' f''>8 <a' c''! e''>4.
  <f' d''>4 <e' c''>16[ <d' b'>] \snhs #'(0 0 1) <c' fis' a'>4 <c' a'>8 <c' a'>8[ <e' c''> <d' b'>] <c' a'>4.
  \snhs #'(0 1 -1 1) <e' g' bes' cis''>4. <f' a' d''>4 <cis'' e''>16[ \snhs #'(-1 0) <d'' f''>] \snhs #'(-1 0) <d'' f''>4 \snhs #'(-1 0) <d'' f''>8 \snhs #'(-1 0) <d'' f''>4.
  <g' ees''>4 <f' d''>16[ <ees' c''>] \snhs #'(0 1 0) <d' f' bes'>4 \snhs #'(0 1 1) <d' f' a'>8  \snhs #'(0 1 -1) <d' f' gis'>4  \snhs #'(0 1 -1) <d' f' gis'>8 <c' e'! a'>4 r8 <e' b'>8 r r
  \set tupletSpannerDuration = #(ly:make-moment 1 8)
  \times 2/3 {
    a16\pp [ c' e'] a'[ c'' e''] d''[ c'' b'] a'[ c'' e''] a''[ c''' e'''] d'''[ c''' b''] \ottava #1 \set Staff.ottavation = \markup '8'
    a''[ c''' e'''] a'''[ c'''' e''''] d''''[ c'''' b'''] bes'''[ a''' gis'''] g'''  [  \ottava #0 fis''' f'''] e'''[ dis''' d''']
    cis'''[ c''' b''] bes''[ a'' gis''] g''[ fis'' f'']
  }

  e''16 dis'' e'' b' d'' c'' a'8 r16 c' e' a' b'8 r16 e' gis' b'
  c''8 r16 e' e'' dis'' e'' dis'' e'' b' d'' c'' a'8 r16 c' e' a' b'8 r16 e' c'' b'
  a'8 r16 b'16 c'' d'' e''8. g'16[ f'' e''] d''8. f'16[ e'' d''] c''8. e'16[ d'' c''] b'8 r16 e'[ e''] r
  r16 e''[ e'''] r r dis''( e'') r r dis''[ e'' dis''] e'' dis'' e'' b' d'' c''
  a'8 r16 c' e' a' b'8 r16 e' gis' b' c''8 r16 e' e'' dis'' e'' dis'' e'' b' d'' c'' a'8 r16 c' e' a' b'8 r16 e' c'' b'
  a'8 r \bar "|."
}

downMusic = {
  \clef bass
  \key a \minor
  \time 3/8
  \partial 8
  \repeat volta 2 {
    r8\pp R4. a,16\sustainOn e a r16 r8\sustainOff e,16\sustainOn e gis r r8\sustainOff
    a,16\sustainOn e a r r8\sustainOff R4. a,16\sustainOn e a r r8\sustainOff
    e,16\sustainOn e gis r r8\sustainOff
  }
  \alternative { { a,16 e a r } { a,16[ e \bar "" a16] r \set Timing.measurePosition = #(ly:make-moment -1 8) r8 } }
  \repeat volta 2 {
    c16\sustainOn g c' r r8\sustainOff g,16\sustainOn g b r r8\sustainOff
    a,16\sustainOn e a r r8 e,16 e e' r r \clef treble e'16[ e''] r r dis''[ e''] r\sustainOff r16 dis''[ e''] r r8 R4.
    \clef bass a,16\sustainOn e a r16 r8\sustainOff e,16\sustainOn e gis r r8\sustainOff
    a,16\sustainOn e a r r8\sustainOff R4. a,16\sustainOn e a r r8\sustainOff
    e,16\sustainOn e gis r r8\sustainOff
  }
  \alternative { { a,16 e a r r8 } { a,16[ e a] <bes c'>[ <a c'> <g bes c'>] } }

  f16 a c' a c' a f bes d' bes d' bes f e' <f g bes> e' <f g bes> e' f a c' a c' a f a c' a c' a e a c' a <d d'> f
  g16 e' g e' g f' \clef treble <c' e'>8 r16 <f' g'>[ \snhs #'(0 1) <e' g'>  \snhs #'(0 1 -1) <d' f' g'>]  \snhs #'(0 0 1) <c' e' g'>8 \clef bass <f a>8[ <g b>]
  \clef treble c'8 r16 <f' g'>[  \snhs #'(0 1) <e' g'> \snhs #'(0 1 -1) <d' f' g'>] \snhs #'(0 0 1) <c' e' g'>8 \clef bass <f a>8[ <g b>] \snhs #'(-1 0) <gis b>8 r r R4.
  R4. R4. R4. a,16 e a r16 r8 e,16\sustainOn e gis r r8\sustainOff a,16\sustainOn e a r r8\sustainOff
  R4. a,16\sustainOn e a r r8\sustainOff e,16\sustainOn e gis r r8\sustainOff a,16 e a r r8
  c16\sustainOn g c' r r8\sustainOff g,16 g b r r8 a,16 e a r r8 e,16\sustainOn e e' r r
  \clef treble e'16([ e'']) r r dis''([ e'']) r\sustainOff r dis''([ e'']) r r8 R4.
  \clef bass a,16 e a r16 r8 e,16 e gis r r8 a,16 e a r r8 R4. a,16 e a r r8 e,16 e gis r r8

  a,16 a, a, a, a, a, a, a, a, a, a, a, a, a, a, a, a, a, a, a, a, a, a, a, a, a, a, a, a, a,
  <d, a,> <d, a,> <d, a,> <d, a,> <d, a,> <d, a,> <dis, a,> <dis, a,> <dis, a,> <dis, a,> <dis, a,> <dis, a,>
  <e, a,> <e, a,> <e, a,> <e, a,> <e, gis,> <e, gis,> <a,, a,> a, a, a, a, a, a, a, a, a, a, a, a, a, a, a, a, a, a, a, a, a, a, a,
  bes, bes, bes, bes, bes, bes, bes, bes, bes, bes, bes, bes, bes, bes, bes, bes, bes, bes,
  b,! b, b, b, b, b, c4 r8 <e gis>8 r r
  a,,8\sustainOn r <a c' e'> <a c' e'> r <a c' e'> <a c' e'> r <a c' e'> <a c' e'> r r R4.

  R4.\sustainOff a,16\sustainOn e a r r8\sustainOff e,16\sustainOn e gis r r8\sustainOff
  a,16\sustainOn e a r r8\sustainOff R4.
  a,16\sustainOn e a r r8\sustainOff e,16\sustainOn e gis r r8\sustainOff a,16 e a r r8
  c16\sustainOn g c' r r8\sustainOff g,16\sustainOn g b r r8\sustainOff
  a,16\sustainOn e a r r8\sustainOff e,16\sustainOn e( e') r r
  \clef treble e'16([ e'']) r r dis''([ e'']) r\sustainOff r dis''([ e'']) r r8 R4.
  \clef bass a,16\sustainOn e a r16 r8\sustainOff e,16\sustainOn e gis r r8\sustainOff a,16 e a r r8 R4.
  a,16 \sustainOn e a r r8\sustainOff e,16 \sustainOn e gis r r8 \sustainOff <a,, a,>8 r \bar  "|."
}

\score {
  \new PianoStaff
  <<
    \new StaffTwinNote = "up" { \upMusic }
    \new StaffTwinNote = "down" { \downMusic }
  >>
  \layout { }
}

\score {
  \unfoldRepeats
  <<
    \upMusic
    \downMusic
  >>
  \midi { }
}