<?xml version="1.0" encoding="UTF-8" standalone="no"?>
<!-- Created with Inkscape (http://www.inkscape.org/) -->

<svg
   xmlns:dc="http://purl.org/dc/elements/1.1/"
   xmlns:cc="http://creativecommons.org/ns#"
   xmlns:rdf="http://www.w3.org/1999/02/22-rdf-syntax-ns#"
   xmlns:svg="http://www.w3.org/2000/svg"
   xmlns="http://www.w3.org/2000/svg"
   version="1.2"
   width="456.63272"
   height="599.51227"
   viewBox="0 0 73.335231 96.281688"
   id="svg2">
  <metadata
     id="metadata346">
    <rdf:RDF>
      <cc:Work
         rdf:about="">
        <dc:format>image/svg+xml</dc:format>
        <dc:type
           rdf:resource="http://purl.org/dc/dcmitype/StillImage" />
        <dc:title></dc:title>
      </cc:Work>
    </rdf:RDF>
  </metadata>
  <defs
     id="defs344" />
  <text
     x="13.8411"
     y="29.439383"
     id="text4"
     style="font-size:2.20009995px;text-anchor:start;fill:currentColor;font-family:Century Schoolbook L">
    <tspan
       id="tspan6" />
  </text>
  <rect
     width="0.47499999"
     height="10"
     ry="0"
     x="72.041"
     y="82.0457"
     id="rect8"
     style="fill:currentColor" />
  <line
     x1="1.0779998"
     y1="92.045692"
     x2="72.390999"
     y2="92.045692"
     id="line10"
     style="stroke:currentColor;stroke-width:0.25;stroke-linecap:round;stroke-linejoin:round" />
  <line
     x1="1.0779998"
     y1="89.5457"
     x2="72.390999"
     y2="89.5457"
     id="line12"
     style="stroke:currentColor;stroke-width:0.25;stroke-linecap:round;stroke-linejoin:round" />
  <line
     x1="1.0779998"
     y1="87.0457"
     x2="72.390999"
     y2="87.0457"
     id="line14"
     style="stroke:currentColor;stroke-width:0.25;stroke-linecap:round;stroke-linejoin:round" />
  <line
     x1="1.0779998"
     y1="84.5457"
     x2="72.390999"
     y2="84.5457"
     id="line16"
     style="stroke:currentColor;stroke-width:0.25;stroke-linecap:round;stroke-linejoin:round" />
  <line
     x1="1.0779998"
     y1="82.0457"
     x2="72.390999"
     y2="82.0457"
     id="line18"
     style="stroke:currentColor;stroke-width:0.25;stroke-linecap:round;stroke-linejoin:round" />
  <rect
     width="0.47499999"
     height="10"
     ry="0"
     x="72.041"
     y="62.757694"
     id="rect20"
     style="fill:currentColor" />
  <line
     x1="1.0779998"
     y1="72.757698"
     x2="72.390999"
     y2="72.757698"
     id="line22"
     style="stroke:currentColor;stroke-width:0.25;stroke-linecap:round;stroke-linejoin:round" />
  <line
     x1="1.0779998"
     y1="70.257698"
     x2="72.390999"
     y2="70.257698"
     id="line24"
     style="stroke:currentColor;stroke-width:0.25;stroke-linecap:round;stroke-linejoin:round" />
  <line
     x1="1.0779998"
     y1="65.257698"
     x2="72.390999"
     y2="65.257698"
     id="line26"
     style="stroke:currentColor;stroke-width:0.25;stroke-linecap:round;stroke-linejoin:round" />
  <line
     x1="1.0779998"
     y1="62.757694"
     x2="72.390999"
     y2="62.757694"
     id="line28"
     style="stroke:currentColor;stroke-width:0.25;stroke-linecap:round;stroke-linejoin:round" />
  <rect
     width="0.47499999"
     height="10"
     ry="0"
     x="72.041"
     y="43.469685"
     id="rect30"
     style="fill:currentColor" />
  <line
     x1="1.0779998"
     y1="53.469685"
     x2="72.390999"
     y2="53.469685"
     id="line32"
     style="stroke:currentColor;stroke-width:0.25;stroke-linecap:round;stroke-linejoin:round" />
  <line
     x1="1.0779998"
     y1="50.969685"
     x2="72.390999"
     y2="50.969685"
     id="line34"
     style="stroke:currentColor;stroke-width:0.25;stroke-linecap:round;stroke-linejoin:round" />
  <line
     x1="1.0779998"
     y1="45.969685"
     x2="72.390999"
     y2="45.969685"
     id="line36"
     style="stroke:currentColor;stroke-width:0.25;stroke-linecap:round;stroke-linejoin:round" />
  <line
     x1="1.0779998"
     y1="43.469685"
     x2="72.390999"
     y2="43.469685"
     id="line38"
     style="stroke:currentColor;stroke-width:0.25;stroke-linecap:round;stroke-linejoin:round" />
  <rect
     width="0.47499999"
     height="10"
     ry="0"
     x="72.041"
     y="24.181688"
     id="rect40"
     style="fill:currentColor" />
  <line
     x1="1.0779998"
     y1="34.181686"
     x2="72.390999"
     y2="34.181686"
     id="line42"
     style="stroke:currentColor;stroke-width:0.25;stroke-linecap:round;stroke-linejoin:round" />
  <line
     x1="1.0779998"
     y1="31.681688"
     x2="72.390999"
     y2="31.681688"
     id="line44"
     style="stroke:currentColor;stroke-width:0.25;stroke-linecap:round;stroke-linejoin:round" />
  <line
     x1="1.0779998"
     y1="26.681688"
     x2="72.390999"
     y2="26.681688"
     id="line46"
     style="stroke:currentColor;stroke-width:0.25;stroke-linecap:round;stroke-linejoin:round" />
  <line
     x1="1.0779998"
     y1="24.181688"
     x2="72.390999"
     y2="24.181688"
     id="line48"
     style="stroke:currentColor;stroke-width:0.25;stroke-linecap:round;stroke-linejoin:round" />
  <rect
     width="0.47499999"
     height="10"
     ry="0"
     x="72.041"
     y="4.8936882"
     id="rect50"
     style="fill:currentColor" />
  <line
     x1="1.0779998"
     y1="14.893687"
     x2="72.390999"
     y2="14.893687"
     id="line52"
     style="stroke:currentColor;stroke-width:0.25;stroke-linecap:round;stroke-linejoin:round" />
  <line
     x1="1.0779998"
     y1="12.393688"
     x2="72.390999"
     y2="12.393688"
     id="line54"
     style="stroke:currentColor;stroke-width:0.25;stroke-linecap:round;stroke-linejoin:round" />
  <line
     x1="1.0779998"
     y1="7.3936882"
     x2="72.390999"
     y2="7.3936882"
     id="line56"
     style="stroke:currentColor;stroke-width:0.25;stroke-linecap:round;stroke-linejoin:round" />
  <line
     x1="1.0779998"
     y1="4.8936882"
     x2="72.390999"
     y2="4.8936882"
     id="line58"
     style="stroke:currentColor;stroke-width:0.25;stroke-linecap:round;stroke-linejoin:round" />
  <rect
     width="0.32499999"
     height="7.4562502"
     ry="0.099999994"
     x="39.589752"
     y="24.225439"
     id="rect60"
     style="fill:currentColor" />
  <rect
     width="0.32499999"
     height="7.5237498"
     ry="0.099999994"
     x="39.255501"
     y="4.8699379"
     id="rect62"
     style="fill:currentColor" />
  <g
     transform="matrix(2.5,0,0,2.5,-34.613,-10.544062)"
     id="g64">
    <g
       transform="matrix(-1,0,0,-1,60.8722,26.6906)"
       id="g66">
      <path
         d="M 0,0 0,0 C 0,0.09 0.45424,0.9 0.68,0.9 0.90576,0.9 1.36,0.09 1.36,0 L 0,0"
         transform="translate(29.7561,12.8953)"
         id="path68"
         style="fill:currentColor;stroke:currentColor;stroke-width:0.15000001;stroke-linecap:round;stroke-linejoin:round" />
    </g>
  </g>
  <path
     d="m 42.03675,79.415685 c 0.56,0 1.09,0.29 1.09,0.91 0,0.72 -0.56,1.21 -1.03,1.49 -0.36,0.21 -0.76,0.36 -1.17,0.36 -0.56,0 -1.09,-0.29 -1.09,-0.91 0,-0.72 0.56,-1.21 1.03,-1.49 0.36,-0.21 0.76,-0.36 1.17,-0.36 z"
     id="path70"
     style="fill:currentColor" />
  <g
     transform="matrix(2.5,0,0,2.5,-34.613,-13.756063)"
     id="g72">
    <g
       transform="matrix(-1,0,0,-1,60.8722,44.7806)"
       id="g74">
      <path
         d="M 0,0 0,0 0,0.42 C 0,0.46 0.606375,1 0.65625,1 0.706125,1 1.3125,0.46 1.3125,0.42 L 1.3125,0 0,0"
         transform="translate(29.7799,21.8903)"
         id="path76"
         style="fill:currentColor;stroke:currentColor;stroke-width:0.1;stroke-linecap:round;stroke-linejoin:round" />
    </g>
  </g>
  <g
     transform="matrix(2.5,0,0,2.5,-34.613,-16.968064)"
     id="g78">
    <g
       transform="matrix(-1,0,0,-1,60.8722,62.7806)"
       id="g80">
      <path
         d="m 0,0 0,0 c -0.09975,0.5 0.65625,1 0.65625,1 0,0 0.756,-0.5 0.65625,-1 L 0,0"
         transform="translate(29.7799,30.8903)"
         id="path82"
         style="fill:currentColor;stroke:currentColor;stroke-width:0.1;stroke-linecap:round;stroke-linejoin:round" />
    </g>
  </g>
  <rect
     width="0.32499999"
     height="7.5125003"
     ry="0.099999994"
     x="39.71175"
     y="43.457184"
     id="rect84"
     style="fill:currentColor" />
  <rect
     width="0.32499999"
     height="7.5125003"
     ry="0.099999994"
     x="39.688999"
     y="62.74519"
     id="rect86"
     style="fill:currentColor" />
  <rect
     width="0.32499999"
     height="8.2805004"
     ry="0.099999994"
     x="39.83675"
     y="81.265198"
     id="rect88"
     style="fill:currentColor" />
  <g
     transform="matrix(2.5,0,0,2.5,-34.613,-7.332061)"
     id="g90">
    <path
       d="M 0,0 0,0 0.84375,1 1.6875,0 0,0 0.2784375,0.16 1.4090625,0.16 0.84375,0.93 0.2784375,0.16"
       transform="translate(32.6917,4.3903)"
       id="path92"
       style="fill:currentColor;stroke:currentColor;stroke-width:0.09;stroke-linecap:round;stroke-linejoin:round" />
  </g>
  <rect
     width="0.32499999"
     height="8.2805004"
     ry="0.099999994"
     x="24.414999"
     y="82.0457"
     id="rect94"
     style="fill:currentColor" />
  <g
     transform="matrix(2.5,0,0,2.5,-34.613,-7.332061)"
     id="g96">
    <g
       transform="matrix(-1,0,0,-1,52.3614,16.7806)"
       id="g98">
      <path
         d="M 0,0 0,0 0.84375,1 1.6875,0 0,0"
         transform="translate(25.3369,7.8903)"
         id="path100"
         style="fill:currentColor;stroke:currentColor;stroke-width:0.09;stroke-linecap:round;stroke-linejoin:round" />
    </g>
  </g>
  <g
     transform="matrix(2.5,0,0,2.5,-34.613,-10.544062)"
     id="g102">
    <g
       transform="matrix(-1,0,0,-1,52.3614,34.6906)"
       id="g104">
      <path
         d="M 0,0 0,0 C 0,0.09 0.45424,0.9 0.68,0.9 0.90576,0.9 1.36,0.09 1.36,0 L 0,0"
         transform="translate(25.5007,16.8953)"
         id="path106"
         style="fill:currentColor;stroke:currentColor;stroke-width:0.15000001;stroke-linecap:round;stroke-linejoin:round" />
    </g>
  </g>
  <g
     transform="matrix(2.5,0,0,2.5,-34.613,-13.756063)"
     id="g108">
    <g
       transform="matrix(-1,0,0,-1,52.3614,52.7806)"
       id="g110">
      <path
         d="M 0,0 0,0 0,0.42 C 0,0.46 0.606375,1 0.65625,1 0.706125,1 1.3125,0.46 1.3125,0.42 L 1.3125,0 0,0"
         transform="translate(25.5244,25.8903)"
         id="path112"
         style="fill:currentColor;stroke:currentColor;stroke-width:0.1;stroke-linecap:round;stroke-linejoin:round" />
    </g>
  </g>
  <g
     transform="matrix(2.5,0,0,2.5,-34.613,-16.968064)"
     id="g114">
    <g
       transform="matrix(-1,0,0,-1,52.3614,70.7806)"
       id="g116">
      <path
         d="m 0,0 0,0 c -0.09975,0.5 0.65625,1 0.65625,1 0,0 0.756,-0.5 0.65625,-1 L 0,0"
         transform="translate(25.5244,34.8903)"
         id="path118"
         style="fill:currentColor;stroke:currentColor;stroke-width:0.1;stroke-linecap:round;stroke-linejoin:round" />
    </g>
  </g>
  <path
     d="m 31.398,88.165686 c 0.56,0 1.09,0.29 1.09,0.91 0,0.72 -0.56,1.21 -1.03,1.490001 -0.36,0.21 -0.76,0.36 -1.17,0.36 -0.56,0 -1.09,-0.29 -1.09,-0.910001 0,-0.72 0.56,-1.21 1.03,-1.49 0.36,-0.21 0.76,-0.36 1.17,-0.36 z"
     id="path120"
     style="fill:currentColor" />
  <rect
     width="0.32499999"
     height="10.08525"
     ry="0.099999994"
     x="32.7355"
     y="4.8936882"
     id="rect122"
     style="fill:currentColor" />
  <rect
     width="0.32499999"
     height="9.9237499"
     ry="0.099999994"
     x="32.401249"
     y="24.181688"
     id="rect124"
     style="fill:currentColor" />
  <rect
     width="0.32499999"
     height="10.0975"
     ry="0.099999994"
     x="32.279251"
     y="43.469685"
     id="rect126"
     style="fill:currentColor" />
  <rect
     width="0.32499999"
     height="10.0975"
     ry="0.099999994"
     x="32.302002"
     y="62.757694"
     id="rect128"
     style="fill:currentColor" />
  <rect
     width="0.32499999"
     height="8.2805004"
     ry="0.099999994"
     x="32.163502"
     y="80.7957"
     id="rect130"
     style="fill:currentColor" />
  <g
     transform="matrix(2.5,0,0,2.5,-34.613,-7.332061)"
     id="g132">
    <g
       transform="matrix(-1,0,0,-1,60.8722,8.7806)"
       id="g134">
      <path
         d="M 0,0 0,0 0.84375,1 1.6875,0 0,0"
         transform="translate(29.5924,3.8903)"
         id="path136"
         style="fill:currentColor;stroke:currentColor;stroke-width:0.09;stroke-linecap:round;stroke-linejoin:round" />
    </g>
  </g>
  <path
     d="m 57.5335,81.915685 c 0.56,0 1.09,0.29 1.09,0.91 0,0.72 -0.56,1.21 -1.03,1.49 -0.36,0.21 -0.76,0.36 -1.17,0.36 -0.56,0 -1.09,-0.29 -1.09,-0.91 0,-0.72 0.56,-1.21 1.03,-1.49 0.36,-0.21 0.76,-0.36 1.17,-0.36 z"
     id="path138"
     style="fill:currentColor" />
  <rect
     width="0.32499999"
     height="7.5237498"
     ry="0.099999994"
     x="54.752251"
     y="6.1199379"
     id="rect140"
     style="fill:currentColor" />
  <rect
     width="0.32499999"
     height="7.4562502"
     ry="0.099999994"
     x="55.086502"
     y="25.475439"
     id="rect142"
     style="fill:currentColor" />
  <rect
     width="0.32499999"
     height="7.5125003"
     ry="0.099999994"
     x="55.2085"
     y="44.707188"
     id="rect144"
     style="fill:currentColor" />
  <rect
     width="0.32499999"
     height="7.5125003"
     ry="0.099999994"
     x="55.185753"
     y="63.99519"
     id="rect146"
     style="fill:currentColor" />
  <rect
     width="0.32499999"
     height="8.2805004"
     ry="0.099999994"
     x="55.3335"
     y="83.765198"
     id="rect148"
     style="fill:currentColor" />
  <g
     transform="matrix(2.5,0,0,2.5,-34.613,-7.332061)"
     id="g150">
    <path
       d="M 0,0 0,0 0.84375,1 1.6875,0 0,0 0.2784375,0.16 1.4090625,0.16 0.84375,0.93 0.2784375,0.16"
       transform="translate(38.8904,4.8903)"
       id="path152"
       style="fill:currentColor;stroke:currentColor;stroke-width:0.09;stroke-linecap:round;stroke-linejoin:round" />
  </g>
  <g
     transform="matrix(2.5,0,0,2.5,-34.613,-10.544062)"
     id="g154">
    <path
       d="M 0,0 0,0 C 0,0.09 0.45424,0.9 0.68,0.9 0.90576,0.9 1.36,0.09 1.36,0 L 0,0 l 0.1496,0.15 1.0608,0 c 0,0 -0.30464,0.73 -0.5304,0.73 -0.22576,0 -0.5304,-0.73 -0.5304,-0.73"
       transform="translate(39.0542,13.8953)"
       id="path156"
       style="fill:currentColor;stroke:currentColor;stroke-width:0.15000001;stroke-linecap:round;stroke-linejoin:round" />
  </g>
  <g
     transform="matrix(2.5,0,0,2.5,-34.613,-13.756063)"
     id="g158">
    <path
       d="M 0,0 0,0 0,0.42 C 0,0.46 0.606375,1 0.65625,1 0.706125,1 1.3125,0.46 1.3125,0.42 L 1.3125,0 0,0 l 0.1575,0.2 0.9975,0 0,0.2 C 1.155,0.47 0.706125,0.92 0.65625,0.92 0.606375,0.92 0.1575,0.47 0.1575,0.4 l 0,-0.2"
       transform="translate(39.0779,22.8903)"
       id="path160"
       style="fill:currentColor;stroke:currentColor;stroke-width:0.1;stroke-linecap:round;stroke-linejoin:round" />
  </g>
  <g
     transform="matrix(2.5,0,0,2.5,-34.613,-16.968064)"
     id="g162">
    <path
       d="m 0,0 0,0 c -0.09975,0.5 0.65625,1 0.65625,1 0,0 0.756,-0.5 0.65625,-1 L 0,0 0.1995,0.2 1.113,0.2 c 0.069562,0.3 -0.45675,0.72 -0.45675,0.72 0,0 -0.5263125,-0.42 -0.45675,-0.72"
       transform="translate(39.0779,31.8903)"
       id="path164"
       style="fill:currentColor;stroke:currentColor;stroke-width:0.1;stroke-linecap:round;stroke-linejoin:round" />
  </g>
  <path
     d="m 65.28175,83.165685 c 0.56,0 1.09,0.29 1.09,0.91 0,0.72 -0.56,1.21 -1.03,1.49 -0.36,0.21 -0.76,0.36 -1.17,0.36 -0.56,0 -1.09,-0.29 -1.09,-0.91 0,-0.72 0.56,-1.21 1.03,-1.49 0.36,-0.21 0.76,-0.36 1.17,-0.36 z"
     id="path166"
     style="fill:currentColor" />
  <rect
     width="0.32499999"
     height="10.08525"
     ry="0.099999994"
     x="62.5005"
     y="4.8084393"
     id="rect168"
     style="fill:currentColor" />
  <g
     transform="matrix(2.5,0,0,2.5,-34.613,-10.544062)"
     id="g170">
    <path
       d="M 0,0 0,0 C 0,0.09 0.45424,0.9 0.68,0.9 0.90576,0.9 1.36,0.09 1.36,0 L 0,0 l 0.1496,0.15 1.0608,0 c 0,0 -0.30464,0.73 -0.5304,0.73 -0.22576,0 -0.5304,-0.73 -0.5304,-0.73"
       transform="translate(32.8555,13.3953)"
       id="path172"
       style="fill:currentColor;stroke:currentColor;stroke-width:0.15000001;stroke-linecap:round;stroke-linejoin:round" />
  </g>
  <g
     transform="matrix(2.5,0,0,2.5,-34.613,-13.756063)"
     id="g174">
    <path
       d="M 0,0 0,0 0,0.42 C 0,0.46 0.606375,1 0.65625,1 0.706125,1 1.3125,0.46 1.3125,0.42 L 1.3125,0 0,0 l 0.1575,0.2 0.9975,0 0,0.2 C 1.155,0.47 0.706125,0.92 0.65625,0.92 0.606375,0.92 0.1575,0.47 0.1575,0.4 l 0,-0.2"
       transform="translate(32.8792,22.3903)"
       id="path176"
       style="fill:currentColor;stroke:currentColor;stroke-width:0.1;stroke-linecap:round;stroke-linejoin:round" />
  </g>
  <g
     transform="matrix(2.5,0,0,2.5,-34.613,-16.968064)"
     id="g178">
    <path
       d="m 0,0 0,0 c -0.09975,0.5 0.65625,1 0.65625,1 0,0 0.756,-0.5 0.65625,-1 L 0,0 0.1995,0.2 1.113,0.2 c 0.069562,0.3 -0.45675,0.72 -0.45675,0.72 0,0 -0.5263125,-0.42 -0.45675,-0.72"
       transform="translate(32.8792,31.3903)"
       id="path180"
       style="fill:currentColor;stroke:currentColor;stroke-width:0.1;stroke-linecap:round;stroke-linejoin:round" />
  </g>
  <path
     d="m 49.785,80.665685 c 0.56,0 1.09,0.29 1.09,0.91 0,0.72 -0.56,1.21 -1.03,1.49 -0.36,0.21 -0.76,0.36 -1.17,0.36 -0.56,0 -1.09,-0.29 -1.09,-0.91 0,-0.72 0.56,-1.21 1.03,-1.49 0.36,-0.21 0.76,-0.36 1.17,-0.36 z"
     id="path182"
     style="fill:currentColor" />
  <rect
     width="0.32499999"
     height="10.08525"
     ry="0.099999994"
     x="47.00375"
     y="3.5584393"
     id="rect184"
     style="fill:currentColor" />
  <rect
     width="0.32499999"
     height="9.9237499"
     ry="0.099999994"
     x="47.338253"
     y="23.007938"
     id="rect186"
     style="fill:currentColor" />
  <rect
     width="0.32499999"
     height="10.0975"
     ry="0.099999994"
     x="47.460003"
     y="42.122185"
     id="rect188"
     style="fill:currentColor" />
  <rect
     width="0.32499999"
     height="10.0975"
     ry="0.099999994"
     x="47.4375"
     y="61.410191"
     id="rect190"
     style="fill:currentColor" />
  <rect
     width="0.32499999"
     height="8.2805004"
     ry="0.099999994"
     x="47.585003"
     y="82.515198"
     id="rect192"
     style="fill:currentColor" />
  <g
     transform="matrix(2.5,0,0,2.5,-34.613,-7.332061)"
     id="g194">
    <g
       transform="matrix(-1,0,0,-1,73.2696,9.7806)"
       id="g196">
      <path
         d="M 0,0 0,0 0.84375,1 1.6875,0 0,0"
         transform="translate(35.7911,4.3903)"
         id="path198"
         style="fill:currentColor;stroke:currentColor;stroke-width:0.09;stroke-linecap:round;stroke-linejoin:round" />
    </g>
  </g>
  <g
     transform="matrix(2.5,0,0,2.5,-34.613,-10.544062)"
     id="g200">
    <g
       transform="matrix(-1,0,0,-1,73.2696,27.6906)"
       id="g202">
      <path
         d="M 0,0 0,0 C 0,0.09 0.45424,0.9 0.68,0.9 0.90576,0.9 1.36,0.09 1.36,0 L 0,0"
         transform="translate(35.9548,13.3953)"
         id="path204"
         style="fill:currentColor;stroke:currentColor;stroke-width:0.15000001;stroke-linecap:round;stroke-linejoin:round" />
    </g>
  </g>
  <g
     transform="matrix(2.5,0,0,2.5,-34.613,-13.756063)"
     id="g206">
    <g
       transform="matrix(-1,0,0,-1,73.2696,45.7806)"
       id="g208">
      <path
         d="M 0,0 0,0 0,0.42 C 0,0.46 0.606375,1 0.65625,1 0.706125,1 1.3125,0.46 1.3125,0.42 L 1.3125,0 0,0"
         transform="translate(35.9786,22.3903)"
         id="path210"
         style="fill:currentColor;stroke:currentColor;stroke-width:0.1;stroke-linecap:round;stroke-linejoin:round" />
    </g>
  </g>
  <g
     transform="matrix(2.5,0,0,2.5,-34.613,-16.968064)"
     id="g212">
    <g
       transform="matrix(-1,0,0,-1,73.2696,63.7806)"
       id="g214">
      <path
         d="m 0,0 0,0 c -0.09975,0.5 0.65625,1 0.65625,1 0,0 0.756,-0.5 0.65625,-1 L 0,0"
         transform="translate(35.9786,31.3903)"
         id="path216"
         style="fill:currentColor;stroke:currentColor;stroke-width:0.1;stroke-linecap:round;stroke-linejoin:round" />
    </g>
  </g>
  <g
     transform="matrix(2.5,0,0,2.5,-34.613,-7.332061)"
     id="g218">
    <path
       d="M 0,0 0,0 0.84375,1 1.6875,0 0,0 0.2784375,0.16 1.4090625,0.16 0.84375,0.93 0.2784375,0.16"
       transform="translate(16.0389,8.8903)"
       id="path220"
       style="fill:currentColor;stroke:currentColor;stroke-width:0.09;stroke-linecap:round;stroke-linejoin:round" />
  </g>
  <g
     transform="matrix(2.5,0,0,2.5,-34.613,-10.544062)"
     id="g222">
    <path
       d="M 0,0 0,0 C 0,0.09 0.45424,0.9 0.68,0.9 0.90576,0.9 1.36,0.09 1.36,0 L 0,0 l 0.1496,0.15 1.0608,0 c 0,0 -0.30464,0.73 -0.5304,0.73 -0.22576,0 -0.5304,-0.73 -0.5304,-0.73"
       transform="translate(16.2026,17.8953)"
       id="path224"
       style="fill:currentColor;stroke:currentColor;stroke-width:0.15000001;stroke-linecap:round;stroke-linejoin:round" />
  </g>
  <g
     transform="matrix(2.5,0,0,2.5,-34.613,-13.756063)"
     id="g226">
    <path
       d="M 0,0 0,0 0,0.42 C 0,0.46 0.606375,1 0.65625,1 0.706125,1 1.3125,0.46 1.3125,0.42 L 1.3125,0 0,0 l 0.1575,0.2 0.9975,0 0,0.2 C 1.155,0.47 0.706125,0.92 0.65625,0.92 0.606375,0.92 0.1575,0.47 0.1575,0.4 l 0,-0.2"
       transform="translate(16.2264,26.8903)"
       id="path228"
       style="fill:currentColor;stroke:currentColor;stroke-width:0.1;stroke-linecap:round;stroke-linejoin:round" />
  </g>
  <g
     transform="matrix(2.5,0,0,2.5,-34.613,-16.968064)"
     id="g230">
    <path
       d="m 0,0 0,0 c -0.09975,0.5 0.65625,1 0.65625,1 0,0 0.756,-0.5 0.65625,-1 L 0,0 0.1995,0.2 1.113,0.2 c 0.069562,0.3 -0.45675,0.72 -0.45675,0.72 0,0 -0.5263125,-0.42 -0.45675,-0.72"
       transform="translate(16.2264,35.8903)"
       id="path232"
       style="fill:currentColor;stroke:currentColor;stroke-width:0.1;stroke-linecap:round;stroke-linejoin:round" />
  </g>
  <path
     d="m 8.153,91.915687 c 0.56,0 1.09,0.29 1.09,0.91 0,0.72 -0.56,1.210001 -1.03,1.490001 -0.36,0.21 -0.76,0.36 -1.17,0.36 -0.56,0 -1.09,-0.29 -1.09,-0.91 0,-0.720001 0.56,-1.210001 1.03,-1.490001 0.36,-0.21 0.76,-0.36 1.17,-0.36 z"
     id="path234"
     style="fill:currentColor" />
  <rect
     width="0.32499999"
     height="7.5237498"
     ry="0.099999994"
     x="9.4905005"
     y="7.3936882"
     id="rect236"
     style="fill:currentColor" />
  <rect
     width="0.32499999"
     height="7.4562502"
     ry="0.099999994"
     x="9.1560001"
     y="26.681688"
     id="rect238"
     style="fill:currentColor" />
  <rect
     width="0.32499999"
     height="7.5125003"
     ry="0.099999994"
     x="9.0342503"
     y="45.969685"
     id="rect240"
     style="fill:currentColor" />
  <text
     x="2.0874393"
     y="3.2641869"
     id="text242"
     style="font-size:2.18250012px;text-anchor:start;fill:currentColor;font-family:sans-serif">
    <tspan
       id="tspan244">original</tspan>
  </text>
  <text
     x="2.0032513"
     y="22.509438"
     id="text246"
     style="font-size:2.18250012px;text-anchor:start;fill:currentColor;font-family:sans-serif">
    <tspan
       id="tspan248">previous</tspan>
  </text>
  <text
     x="2.0874393"
     y="41.797436"
     id="text250"
     style="font-size:2.18250012px;text-anchor:start;fill:currentColor;font-family:sans-serif">
    <tspan
       id="tspan252">experiment</tspan>
  </text>
  <text
     x="2.0032513"
     y="61.341442"
     id="text254"
     style="font-size:2.18250012px;text-anchor:start;fill:currentColor;font-family:sans-serif">
    <tspan
       id="tspan256">new default</tspan>
  </text>
  <rect
     width="0.39999998"
     height="87.40313"
     ry="0.10898147"
     x="0.80300015"
     y="4.7615237"
     id="rect258"
     style="fill:currentColor" />
  <rect
     width="0.32499999"
     height="9.9237499"
     ry="0.099999994"
     x="62.835003"
     y="24.257938"
     id="rect260"
     style="fill:currentColor" />
  <rect
     width="0.32499999"
     height="10.0975"
     ry="0.099999994"
     x="62.956753"
     y="43.372185"
     id="rect262"
     style="fill:currentColor" />
  <rect
     width="0.32499999"
     height="10.0975"
     ry="0.099999994"
     x="62.93425"
     y="62.660191"
     id="rect264"
     style="fill:currentColor" />
  <rect
     width="0.32499999"
     height="8.2805004"
     ry="0.099999994"
     x="63.081753"
     y="85.015198"
     id="rect266"
     style="fill:currentColor" />
  <rect
     width="0.32499999"
     height="10.0975"
     ry="0.099999994"
     x="16.80525"
     y="64.007698"
     id="rect268"
     style="fill:currentColor" />
  <rect
     width="0.32499999"
     height="8.2805004"
     ry="0.099999994"
     x="16.66675"
     y="83.2957"
     id="rect270"
     style="fill:currentColor" />
  <g
     transform="matrix(2.5,0,0,2.5,-34.613,-7.332061)"
     id="g272">
    <path
       d="M 0,0 0,0 0.84375,1 1.6875,0 0,0 0.2784375,0.16 1.4090625,0.16 0.84375,0.93 0.2784375,0.16"
       transform="translate(22.2376,8.3903)"
       id="path274"
       style="fill:currentColor;stroke:currentColor;stroke-width:0.09;stroke-linecap:round;stroke-linejoin:round" />
  </g>
  <g
     transform="matrix(2.5,0,0,2.5,-34.613,-10.544062)"
     id="g276">
    <path
       d="M 0,0 0,0 C 0,0.09 0.45424,0.9 0.68,0.9 0.90576,0.9 1.36,0.09 1.36,0 L 0,0 l 0.1496,0.15 1.0608,0 c 0,0 -0.30464,0.73 -0.5304,0.73 -0.22576,0 -0.5304,-0.73 -0.5304,-0.73"
       transform="translate(22.4013,17.3953)"
       id="path278"
       style="fill:currentColor;stroke:currentColor;stroke-width:0.15000001;stroke-linecap:round;stroke-linejoin:round" />
  </g>
  <g
     transform="matrix(2.5,0,0,2.5,-34.613,-13.756063)"
     id="g280">
    <path
       d="M 0,0 0,0 0,0.42 C 0,0.46 0.606375,1 0.65625,1 0.706125,1 1.3125,0.46 1.3125,0.42 L 1.3125,0 0,0 l 0.1575,0.2 0.9975,0 0,0.2 C 1.155,0.47 0.706125,0.92 0.65625,0.92 0.606375,0.92 0.1575,0.47 0.1575,0.4 l 0,-0.2"
       transform="translate(22.4251,26.3903)"
       id="path282"
       style="fill:currentColor;stroke:currentColor;stroke-width:0.1;stroke-linecap:round;stroke-linejoin:round" />
  </g>
  <g
     transform="matrix(2.5,0,0,2.5,-34.613,-16.968064)"
     id="g284">
    <path
       d="m 0,0 0,0 c -0.09975,0.5 0.65625,1 0.65625,1 0,0 0.756,-0.5 0.65625,-1 L 0,0 0.1995,0.2 1.113,0.2 c 0.069562,0.3 -0.45675,0.72 -0.45675,0.72 0,0 -0.5263125,-0.42 -0.45675,-0.72"
       transform="translate(22.4251,35.3903)"
       id="path286"
       style="fill:currentColor;stroke:currentColor;stroke-width:0.1;stroke-linecap:round;stroke-linejoin:round" />
  </g>
  <path
     d="m 23.64975,89.415686 c 0.56,0 1.09,0.29 1.09,0.91 0,0.720001 -0.56,1.210001 -1.03,1.490001 -0.36,0.21 -0.76,0.36 -1.17,0.36 -0.56,0 -1.09,-0.29 -1.09,-0.91 0,-0.72 0.56,-1.210001 1.03,-1.490001 0.36,-0.21 0.76,-0.36 1.17,-0.36 z"
     id="path288"
     style="fill:currentColor" />
  <rect
     width="0.32499999"
     height="7.5237498"
     ry="0.099999994"
     x="24.987249"
     y="6.1436882"
     id="rect290"
     style="fill:currentColor" />
  <rect
     width="0.32499999"
     height="7.4562502"
     ry="0.099999994"
     x="24.65275"
     y="25.431688"
     id="rect292"
     style="fill:currentColor" />
  <rect
     width="0.32499999"
     height="7.5125003"
     ry="0.099999994"
     x="24.531"
     y="44.719685"
     id="rect294"
     style="fill:currentColor" />
  <rect
     width="0.32499999"
     height="7.5125003"
     ry="0.099999994"
     x="24.553499"
     y="64.007698"
     id="rect296"
     style="fill:currentColor" />
  <rect
     width="0.32499999"
     height="7.5125003"
     ry="0.099999994"
     x="9.0567503"
     y="65.257698"
     id="rect298"
     style="fill:currentColor" />
  <rect
     width="0.32499999"
     height="8.2805004"
     ry="0.099999994"
     x="8.9184999"
     y="84.5457"
     id="rect300"
     style="fill:currentColor" />
  <g
     transform="matrix(2.5,0,0,2.5,-34.613,-7.332061)"
     id="g302">
    <g
       transform="matrix(-1,0,0,-1,39.964,17.7806)"
       id="g304">
      <path
         d="M 0,0 0,0 0.84375,1 1.6875,0 0,0"
         transform="translate(19.1382,8.3903)"
         id="path306"
         style="fill:currentColor;stroke:currentColor;stroke-width:0.09;stroke-linecap:round;stroke-linejoin:round" />
    </g>
  </g>
  <g
     transform="matrix(2.5,0,0,2.5,-34.613,-10.544062)"
     id="g308">
    <g
       transform="matrix(-1,0,0,-1,39.964,35.6906)"
       id="g310">
      <path
         d="M 0,0 0,0 C 0,0.09 0.45424,0.9 0.68,0.9 0.90576,0.9 1.36,0.09 1.36,0 L 0,0"
         transform="translate(19.302,17.3953)"
         id="path312"
         style="fill:currentColor;stroke:currentColor;stroke-width:0.15000001;stroke-linecap:round;stroke-linejoin:round" />
    </g>
  </g>
  <g
     transform="matrix(2.5,0,0,2.5,-34.613,-13.756063)"
     id="g314">
    <g
       transform="matrix(-1,0,0,-1,39.964,53.7806)"
       id="g316">
      <path
         d="M 0,0 0,0 0,0.42 C 0,0.46 0.606375,1 0.65625,1 0.706125,1 1.3125,0.46 1.3125,0.42 L 1.3125,0 0,0"
         transform="translate(19.3257,26.3903)"
         id="path318"
         style="fill:currentColor;stroke:currentColor;stroke-width:0.1;stroke-linecap:round;stroke-linejoin:round" />
    </g>
  </g>
  <g
     transform="matrix(2.5,0,0,2.5,-34.613,-16.968064)"
     id="g320">
    <g
       transform="matrix(-1,0,0,-1,39.964,71.7806)"
       id="g322">
      <path
         d="m 0,0 0,0 c -0.09975,0.5 0.65625,1 0.65625,1 0,0 0.756,-0.5 0.65625,-1 L 0,0"
         transform="translate(19.3257,35.3903)"
         id="path324"
         style="fill:currentColor;stroke:currentColor;stroke-width:0.1;stroke-linecap:round;stroke-linejoin:round" />
    </g>
  </g>
  <path
     d="m 15.90125,90.665687 c 0.56,0 1.09,0.29 1.09,0.91 0,0.72 -0.56,1.21 -1.03,1.49 -0.36,0.21 -0.76,0.36 -1.17,0.36 -0.56,0 -1.09,-0.29 -1.09,-0.91 0,-0.72 0.56,-1.21 1.03,-1.49 0.36,-0.21 0.76,-0.36 1.17,-0.36 z"
     id="path326"
     style="fill:currentColor" />
  <rect
     width="0.32499999"
     height="10.08525"
     ry="0.099999994"
     x="17.23875"
     y="6.1436882"
     id="rect328"
     style="fill:currentColor" />
  <rect
     width="0.32499999"
     height="9.9237499"
     ry="0.099999994"
     x="16.904499"
     y="25.431688"
     id="rect330"
     style="fill:currentColor" />
  <rect
     width="0.32499999"
     height="10.0975"
     ry="0.099999994"
     x="16.782499"
     y="44.719685"
     id="rect332"
     style="fill:currentColor" />
</svg>
